%YAML 1.1
%TAG !u! tag:unity3d.com,2011:
--- !u!114 &11400000
MonoBehaviour:
  m_ObjectHideFlags: 0
  m_CorrespondingSourceObject: {fileID: 0}
  m_PrefabInstance: {fileID: 0}
  m_PrefabAsset: {fileID: 0}
  m_GameObject: {fileID: 0}
  m_Enabled: 1
  m_EditorHideFlags: 0
  m_Script: {fileID: 11500000, guid: 54a21729f65fbb240866aa80ebc84ed7, type: 3}
  m_Name: MutNarrativasSettingsDefault
  m_EditorClassIdentifier: 
  DefaultCharacterDialogueBox: {fileID: 1848364634715896, guid: 922902825b3b67d4288e4e5b85003c20,
    type: 3}
  EmptyInteractableGameObject: {fileID: 6392702360576778159, guid: 6a4749952793b044b849ee8cc3d0475d,
    type: 3}
  EmptyItemGameObject: {fileID: 6392702360576778159, guid: 09842824e8310bc49a5338a7e5aea0f6,
    type: 3}
  EmptyCharacterGameObject: {fileID: 1549453918806434424, guid: a398ef8269e50f347b3d95e466b1ad10,
    type: 3}
  TargetPrefab: {fileID: 974241872398920859, guid: b0c02076531ad5d46bd7e30d9716847b,
    type: 3}
  NarratorName: Narrator
  UseNarratorAsNamelessCharacter: 1
  UseNarratorForUndefinedCharacter: 1
  NarratorText: {fileID: 11400000, guid: 4d1fe94ce60e9ab4aa84a1c5fd2c64e8, type: 2}
  NarratorTextEvent: {fileID: 11400000, guid: e00d94690e8f98c468e634dd751d44f7, type: 2}
  CharacterAssetsPath: Assets/Resources/Characters
  ItemAssetPath: Assets/Resources/Items
  ObjectAssetPath: Assets/Resources/Objects
  ExitAssetPath: Assets/Resources/Exits
  ScenesPath: Assets/Scenes
  YarnTemplateNameMarkup: '{name}'
  characterYarnTemplate: {fileID: 4900000, guid: 9eb88617d2f5e2a42a2bb16f1d62667e,
    type: 3}
  itemYarnTemplate: {fileID: 4900000, guid: a858d2346865560488c22481f79ccac6, type: 3}
  interactableYarnTemplate: {fileID: 4900000, guid: adcaba151a97473448a0e52c28663065,
    type: 3}
  exitYarnTemplate: {fileID: 4900000, guid: 207407e913d33474abd13fa56d06dd87, type: 3}
  sceneYarnTemplate: {fileID: 4900000, guid: a2c21c88a618f874dabc19aaca7b9a70, type: 3}
  CharactersInScene: {fileID: 11400000, guid: e0399c82cdae48846bb07bdbe5a185a3, type: 2}
  OnDialogueComplete: {fileID: 11400000, guid: 9e556ec2b0dadb44eb155a2929ea8456, type: 2}
  OnDialogueStarted: {fileID: 11400000, guid: f06f3d02de71123438842485aa7fe836, type: 2}
