%YAML 1.1
%TAG !u! tag:unity3d.com,2011:
--- !u!114 &11400000
MonoBehaviour:
  m_ObjectHideFlags: 0
  m_CorrespondingSourceObject: {fileID: 0}
  m_PrefabInstance: {fileID: 0}
  m_PrefabAsset: {fileID: 0}
  m_GameObject: {fileID: 0}
  m_Enabled: 1
  m_EditorHideFlags: 0
  m_Script: {fileID: 11500000, guid: 02f46ed79fbd547a690566ef7fae4a7b, type: 3}
  m_Name: CharactersInConversation
  m_EditorClassIdentifier: 
  list: []
  Added: {fileID: 0}
  Removed: {fileID: 0}
  Cleared: {fileID: 0}
