%YAML 1.1
%TAG !u! tag:unity3d.com,2011:
--- !u!221 &22100000
AnimatorOverrideController:
  m_ObjectHideFlags: 0
  m_CorrespondingSourceObject: {fileID: 0}
  m_PrefabInstance: {fileID: 0}
  m_PrefabAsset: {fileID: 0}
  m_Name: TestAnimator
  m_Controller: {fileID: 9100000, guid: 00b222aa83b50d2469eb04c20e2278f9, type: 2}
  m_Clips: []
